Sequence Index,Position,Window Start Date,HOTTREE CONFIDENCE,HOTSAX NN Distance,Sequence Occurrence,SAT Probability %,SAT Sequence,Window Length
122,2196,null,4.47213595499958,4.47213595499958,1,0.5025125628140703,dccccccb,145
123,2214,null,4.47213595499958,4.47213595499958,1,0.5025125628140703,ccccccbb,145
124,2232,null,3.872983346207417,3.872983346207417,1,0.5025125628140703,cccccbbd,145
125,2250,null,4.0,4.0,1,0.5025125628140703,ccccbbdd,145
126,2268,null,4.123105625617661,4.123105625617661,1,0.5025125628140703,cccbbddd,145
127,2286,null,4.0,4.0,1,0.5025125628140703,ccbbdddd,145
128,2304,null,3.7416573867739413,3.7416573867739413,1,0.5025125628140703,cbbddddd,145
129,2322,null,3.605551275463989,3.605551275463989,1,0.5025125628140703,bbdddddd,145
130,2340,null,3.1622776601683795,3.1622776601683795,1,0.5025125628140703,bddddddc,145
131,2358,null,2.23606797749979,2.23606797749979,1,0.5025125628140703,ddddddcc,145
132,2376,null,2.23606797749979,2.23606797749979,1,0.5025125628140703,dddddccc,145
133,2394,null,2.0,2.0,1,0.5025125628140703,ddddcccc,145
134,2412,null,1.4142135623730951,1.4142135623730951,1,0.5025125628140703,dddccccc,145